dd if=/dev/zero of=sb-io-test bs=1M count=3k conv=fdatasync
3072+0 records in
3072+0 records out
3221225472 bytes (3.2 GB, 3.0 GiB) copied, 24.6094 s, 131 MB/s


dd if=/dev/zero of=sb-io-test bs=1M count=3k conv=fdatasync
3072+0 records in
3072+0 records out
3221225472 bytes (3.2 GB, 3.0 GiB) copied, 24.6813 s, 131 MB/s


dd if=/dev/zero of=sb-io-test bs=1M count=3k conv=fdatasync
3072+0 records in
3072+0 records out
3221225472 bytes (3.2 GB, 3.0 GiB) copied, 24.7701 s, 130 MB/s


dd if=/dev/zero of=sb-io-test bs=1M count=3k conv=fdatasync
3072+0 records in
3072+0 records out
3221225472 bytes (3.2 GB, 3.0 GiB) copied, 24.616 s, 131 MB/s


dd if=/dev/zero of=sb-io-test bs=1M count=3k conv=fdatasync
3072+0 records in
3072+0 records out
3221225472 bytes (3.2 GB, 3.0 GiB) copied, 25.8602 s, 125 MB/s


dd if=/dev/zero of=sb-io-test bs=1M count=5k conv=fdatasync
5120+0 records in
5120+0 records out
5368709120 bytes (5.4 GB, 5.0 GiB) copied, 40.2912 s, 133 MB/s


dd if=/dev/zero of=sb-io-test bs=1M count=5k conv=fdatasync
5120+0 records in
5120+0 records out
5368709120 bytes (5.4 GB, 5.0 GiB) copied, 40.793 s, 132 MB/s


dd if=/dev/zero of=sb-io-test bs=1M count=5k conv=fdatasync
5120+0 records in
5120+0 records out
5368709120 bytes (5.4 GB, 5.0 GiB) copied, 41.3808 s, 130 MB/s


dd if=/dev/zero of=sb-io-test bs=1M count=5k conv=fdatasync
5120+0 records in
5120+0 records out
5368709120 bytes (5.4 GB, 5.0 GiB) copied, 40.3017 s, 133 MB/s


dd if=/dev/zero of=sb-io-test bs=1M count=5k conv=fdatasync
5120+0 records in
5120+0 records out
5368709120 bytes (5.4 GB, 5.0 GiB) copied, 40.2897 s, 133 MB/s
