
sudo hdparm -Tt /dev/xvda

/dev/xvda:
 Timing cached reads:   19834 MB in  1.99 seconds = 9951.76 MB/sec
 Timing buffered disk reads: 480 MB in  3.01 seconds = 159.53 MB/sec


sudo hdparm -Tt /dev/xvda

/dev/xvda:
 Timing cached reads:   19880 MB in  1.99 seconds = 9974.70 MB/sec
 Timing buffered disk reads: 524 MB in  3.01 seconds = 173.96 MB/sec


sudo hdparm -Tt /dev/xvda

/dev/xvda:
 Timing cached reads:   19856 MB in  1.99 seconds = 9961.92 MB/sec
 Timing buffered disk reads: 524 MB in  3.01 seconds = 174.04 MB/sec


sudo hdparm -Tt /dev/xvda

/dev/xvda:
 Timing cached reads:   19848 MB in  1.99 seconds = 9958.33 MB/sec
 Timing buffered disk reads: 524 MB in  3.01 seconds = 174.06 MB/sec


sudo hdparm -Tt /dev/xvda

/dev/xvda:
 Timing cached reads:   19840 MB in  1.99 seconds = 9953.91 MB/sec
 Timing buffered disk reads: 524 MB in  3.01 seconds = 174.05 MB/sec
