dd if=/dev/zero of=sb-io-test bs=1M count=3k conv=fdatasync
3072+0 records in
3072+0 records out
3221225472 bytes (3.2 GB, 3.0 GiB) copied, 23.9105 s, 135 MB/s


dd if=/dev/zero of=sb-io-test bs=1M count=3k conv=fdatasync
3072+0 records in
3072+0 records out
3221225472 bytes (3.2 GB, 3.0 GiB) copied, 23.8366 s, 135 MB/s


dd if=/dev/zero of=sb-io-test bs=1M count=3k conv=fdatasync
3072+0 records in
3072+0 records out
3221225472 bytes (3.2 GB, 3.0 GiB) copied, 23.8434 s, 135 MB/s


dd if=/dev/zero of=sb-io-test bs=1M count=3k conv=fdatasync
3072+0 records in
3072+0 records out
3221225472 bytes (3.2 GB, 3.0 GiB) copied, 23.8418 s, 135 MB/s


dd if=/dev/zero of=sb-io-test bs=1M count=3k conv=fdatasync
3072+0 records in
3072+0 records out
3221225472 bytes (3.2 GB, 3.0 GiB) copied, 23.8339 s, 135 MB/s


dd if=/dev/zero of=sb-io-test bs=1M count=5k conv=fdatasync
5120+0 records in
5120+0 records out
5368709120 bytes (5.4 GB, 5.0 GiB) copied, 39.9462 s, 134 MB/s


dd if=/dev/zero of=sb-io-test bs=1M count=5k conv=fdatasync
5120+0 records in
5120+0 records out
5368709120 bytes (5.4 GB, 5.0 GiB) copied, 39.8198 s, 135 MB/s


dd if=/dev/zero of=sb-io-test bs=1M count=5k conv=fdatasync
5120+0 records in
5120+0 records out
5368709120 bytes (5.4 GB, 5.0 GiB) copied, 39.826 s, 135 MB/s


dd if=/dev/zero of=sb-io-test bs=1M count=5k conv=fdatasync
5120+0 records in
5120+0 records out
5368709120 bytes (5.4 GB, 5.0 GiB) copied, 39.8211 s, 135 MB/s


dd if=/dev/zero of=sb-io-test bs=1M count=5k conv=fdatasync
5120+0 records in
5120+0 records out
5368709120 bytes (5.4 GB, 5.0 GiB) copied, 39.8183 s, 135 MB/s
