speedtest-cli --simple
Ping: 1.414 ms
Download: 912.66 Mbit/s
Upload: 881.84 Mbit/s


speedtest-cli --simple
Ping: 0.925 ms
Download: 3265.09 Mbit/s
Upload: 1112.12 Mbit/s


speedtest-cli --simple
Ping: 0.93 ms
Download: 3292.28 Mbit/s
Upload: 1062.56 Mbit/s


speedtest-cli --simple
Ping: 0.943 ms
Download: 3175.38 Mbit/s
Upload: 1077.36 Mbit/s


speedtest-cli --simple
Ping: 0.89 ms
Download: 935.20 Mbit/s
Upload: 1670.49 Mbit/s
